C:\Users\junio\OneDrive\Documentos\NetBeansProjects\Final\src\main\java\root\model\dao\exceptions\IllegalOrphanException.java
C:\Users\junio\OneDrive\Documentos\NetBeansProjects\Final\src\main\java\root\services\AppConfig.java
C:\Users\junio\OneDrive\Documentos\NetBeansProjects\Final\src\main\java\root\model\entities\Palabras.java
C:\Users\junio\OneDrive\Documentos\NetBeansProjects\Final\src\main\java\root\controller\ControllerListado.java
C:\Users\junio\OneDrive\Documentos\NetBeansProjects\Final\src\main\java\root\controller\ControllerUsuario.java
C:\Users\junio\OneDrive\Documentos\NetBeansProjects\Final\src\main\java\root\model\dao\exceptions\PreexistingEntityException.java
C:\Users\junio\OneDrive\Documentos\NetBeansProjects\Final\src\main\java\root\services\DiccionarioLocal.java
C:\Users\junio\OneDrive\Documentos\NetBeansProjects\Final\src\main\java\root\model\dao\PalabrasJpaController.java
C:\Users\junio\OneDrive\Documentos\NetBeansProjects\Final\src\main\java\root\model\dao\exceptions\NonexistentEntityException.java
C:\Users\junio\OneDrive\Documentos\NetBeansProjects\Final\src\main\java\com\mycompany\finalexamen\resources\JavaEE8Resource.java
C:\Users\junio\OneDrive\Documentos\NetBeansProjects\Final\src\main\java\root\model\entities\Usuario.java
C:\Users\junio\OneDrive\Documentos\NetBeansProjects\Final\src\main\java\com\mycompany\finalexamen\JAXRSConfiguration.java
C:\Users\junio\OneDrive\Documentos\NetBeansProjects\Final\src\main\java\root\controller\Controller.java
C:\Users\junio\OneDrive\Documentos\NetBeansProjects\Final\src\main\java\root\model\dao\UsuarioDAO.java
C:\Users\junio\OneDrive\Documentos\NetBeansProjects\Final\src\main\java\root\dto\Palabra.java
